SISTEMAS-EMBARCADOS/trabalhos/trabalhofinal02/Project_Nano_Controlador/simulation/qsim/NanoControlador.msim.vcd
$comment
	File created using the following command:
		vcd file NanoControlador.msim.vcd -direction
$end
$date
	Fri Aug 20 14:14:10 2021
$end
$version
	ModelSim Version 10.1d
$end
$timescale
	1ps
$end
$scope module NanoControlador_vlg_vec_tst $end
$var reg 8 ! A [7:0] $end
$var reg 8 " B [7:0] $end
$var reg 3 # ula_op [2:0] $end
$var wire 1 $ C [7] $end
$var wire 1 % C [6] $end
$var wire 1 & C [5] $end
$var wire 1 ' C [4] $end
$var wire 1 ( C [3] $end
$var wire 1 ) C [2] $end
$var wire 1 * C [1] $end
$var wire 1 + C [0] $end
$var wire 1 , c_inst $end
$var wire 1 - n_inst $end
$var wire 1 . v_inst $end
$var wire 1 / z_inst $end
$var wire 1 0 sampler $end
$scope module i1 $end
$var wire 1 1 gnd $end
$var wire 1 2 vcc $end
$var wire 1 3 unknown $end
$var tri1 1 4 devclrn $end
$var tri1 1 5 devpor $end
$var tri1 1 6 devoe $end
$var wire 1 7 C[0]~output_o $end
$var wire 1 8 C[1]~output_o $end
$var wire 1 9 C[2]~output_o $end
$var wire 1 : C[3]~output_o $end
$var wire 1 ; C[4]~output_o $end
$var wire 1 < C[5]~output_o $end
$var wire 1 = C[6]~output_o $end
$var wire 1 > C[7]~output_o $end
$var wire 1 ? n_inst~output_o $end
$var wire 1 @ z_inst~output_o $end
$var wire 1 A c_inst~output_o $end
$var wire 1 B v_inst~output_o $end
$var wire 1 C ula_op[0]~input_o $end
$var wire 1 D ula_op[2]~input_o $end
$var wire 1 E ula_op[1]~input_o $end
$var wire 1 F A[0]~input_o $end
$var wire 1 G Mux8~1_combout $end
$var wire 1 H B[0]~input_o $end
$var wire 1 I Add0~0_combout $end
$var wire 1 J Add0~2_cout $end
$var wire 1 K Add0~3_combout $end
$var wire 1 L Mux8~0_combout $end
$var wire 1 M Mux8~2_combout $end
$var wire 1 N A[1]~input_o $end
$var wire 1 O B[1]~input_o $end
$var wire 1 P Add0~5_combout $end
$var wire 1 Q Add0~4 $end
$var wire 1 R Add0~6_combout $end
$var wire 1 S Mux7~1_combout $end
$var wire 1 T Mux7~0_combout $end
$var wire 1 U Mux7~2_combout $end
$var wire 1 V A[2]~input_o $end
$var wire 1 W Mux6~0_combout $end
$var wire 1 X B[2]~input_o $end
$var wire 1 Y Add0~8_combout $end
$var wire 1 Z Add0~7 $end
$var wire 1 [ Add0~9_combout $end
$var wire 1 \ Mux6~1_combout $end
$var wire 1 ] Mux6~2_combout $end
$var wire 1 ^ B[3]~input_o $end
$var wire 1 _ A[3]~input_o $end
$var wire 1 ` Mux5~0_combout $end
$var wire 1 a Add0~11_combout $end
$var wire 1 b Add0~10 $end
$var wire 1 c Add0~12_combout $end
$var wire 1 d Mux5~1_combout $end
$var wire 1 e Mux5~2_combout $end
$var wire 1 f A[4]~input_o $end
$var wire 1 g B[4]~input_o $end
$var wire 1 h Add0~14_combout $end
$var wire 1 i Add0~13 $end
$var wire 1 j Add0~15_combout $end
$var wire 1 k Mux4~0_combout $end
$var wire 1 l Mux4~1_combout $end
$var wire 1 m Mux4~2_combout $end
$var wire 1 n A[5]~input_o $end
$var wire 1 o Mux3~1_combout $end
$var wire 1 p Mux3~0_combout $end
$var wire 1 q B[5]~input_o $end
$var wire 1 r Add0~17_combout $end
$var wire 1 s Add0~16 $end
$var wire 1 t Add0~18_combout $end
$var wire 1 u Mux3~2_combout $end
$var wire 1 v A[6]~input_o $end
$var wire 1 w Mux2~1_combout $end
$var wire 1 x Mux2~0_combout $end
$var wire 1 y B[6]~input_o $end
$var wire 1 z Add0~20_combout $end
$var wire 1 { Add0~19 $end
$var wire 1 | Add0~21_combout $end
$var wire 1 } Mux2~2_combout $end
$var wire 1 ~ A[7]~input_o $end
$var wire 1 !! Mux1~1_combout $end
$var wire 1 "! B[7]~input_o $end
$var wire 1 #! Add0~23_combout $end
$var wire 1 $! Add0~22 $end
$var wire 1 %! Add0~24_combout $end
$var wire 1 &! Mux1~0_combout $end
$var wire 1 '! Mux1~2_combout $end
$var wire 1 (! Equal0~1_combout $end
$var wire 1 )! Equal0~0_combout $end
$var wire 1 *! Equal0~2_combout $end
$var wire 1 +! Add0~25 $end
$var wire 1 ,! Add0~26_combout $end
$var wire 1 -! Mux0~0_combout $end
$var wire 1 .! v_inst~0_combout $end
$upscope $end
$upscope $end
$enddefinitions $end
#0
$dumpvars
b11001 !
b11001 "
b0 #
x+
x*
x)
x(
x'
x&
x%
x$
x,
x-
x.
x/
x0
01
12
x3
14
15
16
x7
x8
x9
x:
x;
x<
x=
x>
x?
x@
xA
xB
0C
0D
0E
1F
xG
1H
xI
xJ
xK
xL
xM
0N
0O
xP
xQ
xR
xS
xT
xU
0V
xW
0X
xY
xZ
x[
x\
x]
1^
1_
x`
xa
xb
xc
xd
xe
1f
1g
xh
xi
xj
xk
xl
xm
0n
xo
xp
0q
xr
xs
xt
xu
0v
xw
xx
0y
xz
x{
x|
x}
0~
x!!
0"!
x#!
x$!
x%!
x&!
x'!
x(!
x)!
x*!
x+!
x,!
x-!
x.!
$end
#4035
0P
#4042
1h
#4203
0S
#4208
0\
#4216
0r
#4230
1a
#4262
0J
#4311
1I
#4327
0z
#4328
0#!
#4336
0Y
#4410
0p
#4411
0o
#4413
0x
#4416
0w
#4417
0`
#4418
0d
#4420
0k
#4421
0T
#4422
0l
0G
0L
0&!
#4495
0!!
#4566
0W
#4567
0s
#4837
0Q
#4899
0K
#4965
0Z
#5009
1$!
#5012
0+!
#5023
1b
1i
#5156
0{
#5193
1t
#5292
1R
#5446
0%!
#5449
0,!
#5460
0c
#5478
1j
#5593
0|
#5613
0[
#5887
0M
1u
#6267
0'!
#6269
1U
#6272
0e
#6326
0}
#6442
0-!
#6460
1m
#6483
0(!
#6635
0]
#6841
0)!
#7045
1.!
#7287
0*!
#9687
09
0)
#9808
1;
1'
#9863
1<
1&
#10314
0:
0(
#10323
0?
0-
#10356
0>
0$
#10523
07
0+
#10602
0A
0,
#10885
18
1*
#11145
0@
0/
#11179
0B
0.
#12098
0=
0%
