SISTEMAS-EMBARCADOS/trabalhos/trabalhofinal02/projeto_final/simulation/qsim/NanoControlador.msim.vcd
$comment
	File created using the following command:
		vcd file NanoControlador.msim.vcd -direction
$end
$date
	Mon Aug 23 20:53:15 2021
$end
$version
	ModelSim Version 10.1d
$end
$timescale
	1ps
$end
$scope module NanoControlador_vlg_vec_tst $end
$var reg 8 ! A [7:0] $end
$var reg 4 " address [3:0] $end
$var reg 8 # B [7:0] $end
$var reg 1 $ clk $end
$var reg 1 % enable $end
$var reg 4 & ula_op [3:0] $end
$var wire 1 ' C [7] $end
$var wire 1 ( C [6] $end
$var wire 1 ) C [5] $end
$var wire 1 * C [4] $end
$var wire 1 + C [3] $end
$var wire 1 , C [2] $end
$var wire 1 - C [1] $end
$var wire 1 . C [0] $end
$var wire 1 / sampler $end
$scope module i1 $end
$var wire 1 0 gnd $end
$var wire 1 1 vcc $end
$var wire 1 2 unknown $end
$var tri1 1 3 devclrn $end
$var tri1 1 4 devpor $end
$var tri1 1 5 devoe $end
$var wire 1 6 C[0]~output_o $end
$var wire 1 7 C[1]~output_o $end
$var wire 1 8 C[2]~output_o $end
$var wire 1 9 C[3]~output_o $end
$var wire 1 : C[4]~output_o $end
$var wire 1 ; C[5]~output_o $end
$var wire 1 < C[6]~output_o $end
$var wire 1 = C[7]~output_o $end
$var wire 1 > address[3]~input_o $end
$var wire 1 ? address[1]~input_o $end
$var wire 1 @ clk~input_o $end
$var wire 1 A clk~inputclkctrl_outclk $end
$var wire 1 B ula_op[3]~input_o $end
$var wire 1 C ula_op[2]~input_o $end
$var wire 1 D ula_op[0]~input_o $end
$var wire 1 E B[0]~input_o $end
$var wire 1 F enable~input_o $end
$var wire 1 G Add0~0_combout $end
$var wire 1 H ula_op[1]~input_o $end
$var wire 1 I A[0]~input_o $end
$var wire 1 J Add0~1_combout $end
$var wire 1 K Add0~3_cout $end
$var wire 1 L Add0~4_combout $end
$var wire 1 M Mux7~0_combout $end
$var wire 1 N Add0~6_combout $end
$var wire 1 O Mux7~1_combout $end
$var wire 1 P Mux7~2_combout $end
$var wire 1 Q Mux7~3_combout $end
$var wire 1 R Add0~7_combout $end
$var wire 1 S ram~29feeder_combout $end
$var wire 1 T address[0]~input_o $end
$var wire 1 U address[2]~input_o $end
$var wire 1 V ram~173_combout $end
$var wire 1 W ram~174_combout $end
$var wire 1 X ram~29_q $end
$var wire 1 Y ram~179_combout $end
$var wire 1 Z ram~180_combout $end
$var wire 1 [ ram~37_q $end
$var wire 1 \ ram~21feeder_combout $end
$var wire 1 ] ram~175_combout $end
$var wire 1 ^ ram~176_combout $end
$var wire 1 _ ram~21_q $end
$var wire 1 ` ram~177_combout $end
$var wire 1 a ram~178_combout $end
$var wire 1 b ram~13_q $end
$var wire 1 c ram~103_combout $end
$var wire 1 d ram~104_combout $end
$var wire 1 e ram~61feeder_combout $end
$var wire 1 f ram~167_combout $end
$var wire 1 g ram~168_combout $end
$var wire 1 h ram~61_q $end
$var wire 1 i ram~169_combout $end
$var wire 1 j ram~170_combout $end
$var wire 1 k ram~45_q $end
$var wire 1 l ram~101_combout $end
$var wire 1 m ram~171_combout $end
$var wire 1 n ram~172_combout $end
$var wire 1 o ram~69_q $end
$var wire 1 p ram~53feeder_combout $end
$var wire 1 q ram~165_combout $end
$var wire 1 r ram~166_combout $end
$var wire 1 s ram~53_q $end
$var wire 1 t ram~102_combout $end
$var wire 1 u ram~105_combout $end
$var wire 1 v ram~93feeder_combout $end
$var wire 1 w ram~181_combout $end
$var wire 1 x ram~182_combout $end
$var wire 1 y ram~93_q $end
$var wire 1 z ram~183_combout $end
$var wire 1 { ram~184_combout $end
$var wire 1 | ram~77_q $end
$var wire 1 } ram~106_combout $end
$var wire 1 ~ ram~185_combout $end
$var wire 1 !! ram~186_combout $end
$var wire 1 "! ram~85_q $end
$var wire 1 #! ram~107_combout $end
$var wire 1 $! ram~108_combout $end
$var wire 1 %! A[1]~input_o $end
$var wire 1 &! B[1]~input_o $end
$var wire 1 '! Mux6~1_combout $end
$var wire 1 (! Mux6~0_combout $end
$var wire 1 )! Add0~9_combout $end
$var wire 1 *! Add0~8_combout $end
$var wire 1 +! Add0~5 $end
$var wire 1 ,! Add0~10_combout $end
$var wire 1 -! Add0~12_combout $end
$var wire 1 .! Add0~13_combout $end
$var wire 1 /! ram~78_q $end
$var wire 1 0! ram~94feeder_combout $end
$var wire 1 1! ram~94_q $end
$var wire 1 2! ram~114_combout $end
$var wire 1 3! ram~86_q $end
$var wire 1 4! ram~115_combout $end
$var wire 1 5! ram~22feeder_combout $end
$var wire 1 6! ram~22_q $end
$var wire 1 7! ram~14_q $end
$var wire 1 8! ram~111_combout $end
$var wire 1 9! ram~38_q $end
$var wire 1 :! ram~30feeder_combout $end
$var wire 1 ;! ram~30_q $end
$var wire 1 <! ram~112_combout $end
$var wire 1 =! ram~62feeder_combout $end
$var wire 1 >! ram~62_q $end
$var wire 1 ?! ram~46_q $end
$var wire 1 @! ram~109_combout $end
$var wire 1 A! ram~70_q $end
$var wire 1 B! ram~54feeder_combout $end
$var wire 1 C! ram~54_q $end
$var wire 1 D! ram~110_combout $end
$var wire 1 E! ram~113_combout $end
$var wire 1 F! ram~116_combout $end
$var wire 1 G! B[2]~input_o $end
$var wire 1 H! A[2]~input_o $end
$var wire 1 I! Mux5~1_combout $end
$var wire 1 J! Mux5~0_combout $end
$var wire 1 K! Add0~14_combout $end
$var wire 1 L! Add0~15_combout $end
$var wire 1 M! Add0~11 $end
$var wire 1 N! Add0~16_combout $end
$var wire 1 O! Add0~18_combout $end
$var wire 1 P! Add0~19_combout $end
$var wire 1 Q! ram~63feeder_combout $end
$var wire 1 R! ram~63_q $end
$var wire 1 S! ram~47_q $end
$var wire 1 T! ram~117_combout $end
$var wire 1 U! ram~55feeder_combout $end
$var wire 1 V! ram~55_q $end
$var wire 1 W! ram~71_q $end
$var wire 1 X! ram~118_combout $end
$var wire 1 Y! ram~31feeder_combout $end
$var wire 1 Z! ram~31_q $end
$var wire 1 [! ram~39_q $end
$var wire 1 \! ram~23feeder_combout $end
$var wire 1 ]! ram~23_q $end
$var wire 1 ^! ram~15_q $end
$var wire 1 _! ram~119_combout $end
$var wire 1 `! ram~120_combout $end
$var wire 1 a! ram~121_combout $end
$var wire 1 b! ram~87_q $end
$var wire 1 c! ram~95feeder_combout $end
$var wire 1 d! ram~95_q $end
$var wire 1 e! ram~79_q $end
$var wire 1 f! ram~122_combout $end
$var wire 1 g! ram~123_combout $end
$var wire 1 h! ram~124_combout $end
$var wire 1 i! A[3]~input_o $end
$var wire 1 j! B[3]~input_o $end
$var wire 1 k! Add0~24_combout $end
$var wire 1 l! Add0~20_combout $end
$var wire 1 m! Add0~21_combout $end
$var wire 1 n! Add0~17 $end
$var wire 1 o! Add0~22_combout $end
$var wire 1 p! Add0~25_combout $end
$var wire 1 q! Add0~26_combout $end
$var wire 1 r! Add0~27_combout $end
$var wire 1 s! ram~24feeder_combout $end
$var wire 1 t! ram~24_q $end
$var wire 1 u! ram~16_q $end
$var wire 1 v! ram~127_combout $end
$var wire 1 w! ram~40_q $end
$var wire 1 x! ram~32_q $end
$var wire 1 y! ram~128_combout $end
$var wire 1 z! ram~56feeder_combout $end
$var wire 1 {! ram~56_q $end
$var wire 1 |! ram~72_q $end
$var wire 1 }! ram~64feeder_combout $end
$var wire 1 ~! ram~64_q $end
$var wire 1 !" ram~48_q $end
$var wire 1 "" ram~125_combout $end
$var wire 1 #" ram~126_combout $end
$var wire 1 $" ram~129_combout $end
$var wire 1 %" ram~96feeder_combout $end
$var wire 1 &" ram~96_q $end
$var wire 1 '" ram~80_q $end
$var wire 1 (" ram~130_combout $end
$var wire 1 )" ram~88_q $end
$var wire 1 *" ram~131_combout $end
$var wire 1 +" ram~132_combout $end
$var wire 1 ," A[4]~input_o $end
$var wire 1 -" B[4]~input_o $end
$var wire 1 ." Add0~32_combout $end
$var wire 1 /" Add0~29_combout $end
$var wire 1 0" Add0~28_combout $end
$var wire 1 1" Add0~23 $end
$var wire 1 2" Add0~30_combout $end
$var wire 1 3" Add0~33_combout $end
$var wire 1 4" Add0~34_combout $end
$var wire 1 5" Add0~35_combout $end
$var wire 1 6" ram~57feeder_combout $end
$var wire 1 7" ram~57_q $end
$var wire 1 8" ram~73_q $end
$var wire 1 9" ram~65feeder_combout $end
$var wire 1 :" ram~65_q $end
$var wire 1 ;" ram~49_q $end
$var wire 1 <" ram~133_combout $end
$var wire 1 =" ram~134_combout $end
$var wire 1 >" ram~33feeder_combout $end
$var wire 1 ?" ram~33_q $end
$var wire 1 @" ram~41_q $end
$var wire 1 A" ram~25feeder_combout $end
$var wire 1 B" ram~25_q $end
$var wire 1 C" ram~17_q $end
$var wire 1 D" ram~135_combout $end
$var wire 1 E" ram~136_combout $end
$var wire 1 F" ram~137_combout $end
$var wire 1 G" ram~89_q $end
$var wire 1 H" ram~81_q $end
$var wire 1 I" ram~97feeder_combout $end
$var wire 1 J" ram~97_q $end
$var wire 1 K" ram~138_combout $end
$var wire 1 L" ram~139_combout $end
$var wire 1 M" ram~140_combout $end
$var wire 1 N" B[5]~input_o $end
$var wire 1 O" A[5]~input_o $end
$var wire 1 P" Add0~41_combout $end
$var wire 1 Q" Add0~42_combout $end
$var wire 1 R" Add0~40_combout $end
$var wire 1 S" Add0~37_combout $end
$var wire 1 T" Add0~36_combout $end
$var wire 1 U" Add0~31 $end
$var wire 1 V" Add0~38_combout $end
$var wire 1 W" Add0~43_combout $end
$var wire 1 X" ram~66feeder_combout $end
$var wire 1 Y" ram~66_q $end
$var wire 1 Z" ram~50_q $end
$var wire 1 [" ram~141_combout $end
$var wire 1 \" ram~58feeder_combout $end
$var wire 1 ]" ram~58_q $end
$var wire 1 ^" ram~74_q $end
$var wire 1 _" ram~142_combout $end
$var wire 1 `" ram~34feeder_combout $end
$var wire 1 a" ram~34_q $end
$var wire 1 b" ram~42_q $end
$var wire 1 c" ram~18_q $end
$var wire 1 d" ram~26feeder_combout $end
$var wire 1 e" ram~26_q $end
$var wire 1 f" ram~143_combout $end
$var wire 1 g" ram~144_combout $end
$var wire 1 h" ram~145_combout $end
$var wire 1 i" ram~90_q $end
$var wire 1 j" ram~82_q $end
$var wire 1 k" ram~98feeder_combout $end
$var wire 1 l" ram~98_q $end
$var wire 1 m" ram~146_combout $end
$var wire 1 n" ram~147_combout $end
$var wire 1 o" ram~148_combout $end
$var wire 1 p" B[6]~input_o $end
$var wire 1 q" A[6]~input_o $end
$var wire 1 r" Add0~48_combout $end
$var wire 1 s" Add0~49_combout $end
$var wire 1 t" Add0~50_combout $end
$var wire 1 u" Add0~44_combout $end
$var wire 1 v" Add0~45_combout $end
$var wire 1 w" Add0~39 $end
$var wire 1 x" Add0~46_combout $end
$var wire 1 y" Add0~51_combout $end
$var wire 1 z" ram~99feeder_combout $end
$var wire 1 {" ram~99_q $end
$var wire 1 |" ram~83_q $end
$var wire 1 }" ram~154_combout $end
$var wire 1 ~" ram~91_q $end
$var wire 1 !# ram~155_combout $end
$var wire 1 "# ram~59feeder_combout $end
$var wire 1 ## ram~59_q $end
$var wire 1 $# ram~75_q $end
$var wire 1 %# ram~67feeder_combout $end
$var wire 1 &# ram~67_q $end
$var wire 1 '# ram~51_q $end
$var wire 1 (# ram~149_combout $end
$var wire 1 )# ram~150_combout $end
$var wire 1 *# ram~27feeder_combout $end
$var wire 1 +# ram~27_q $end
$var wire 1 ,# ram~19_q $end
$var wire 1 -# ram~151_combout $end
$var wire 1 .# ram~43_q $end
$var wire 1 /# ram~35feeder_combout $end
$var wire 1 0# ram~35_q $end
$var wire 1 1# ram~152_combout $end
$var wire 1 2# ram~153_combout $end
$var wire 1 3# ram~156_combout $end
$var wire 1 4# A[7]~input_o $end
$var wire 1 5# B[7]~input_o $end
$var wire 1 6# Add0~57_combout $end
$var wire 1 7# Add0~58_combout $end
$var wire 1 8# Add0~52_combout $end
$var wire 1 9# Add0~53_combout $end
$var wire 1 :# Add0~47 $end
$var wire 1 ;# Add0~54_combout $end
$var wire 1 <# Add0~56_combout $end
$var wire 1 =# Add0~59_combout $end
$var wire 1 ># ram~92_q $end
$var wire 1 ?# ram~100feeder_combout $end
$var wire 1 @# ram~100_q $end
$var wire 1 A# ram~84_q $end
$var wire 1 B# ram~162_combout $end
$var wire 1 C# ram~163_combout $end
$var wire 1 D# ram~68feeder_combout $end
$var wire 1 E# ram~68_q $end
$var wire 1 F# ram~52_q $end
$var wire 1 G# ram~157_combout $end
$var wire 1 H# ram~60feeder_combout $end
$var wire 1 I# ram~60_q $end
$var wire 1 J# ram~76_q $end
$var wire 1 K# ram~158_combout $end
$var wire 1 L# ram~28_q $end
$var wire 1 M# ram~20_q $end
$var wire 1 N# ram~159_combout $end
$var wire 1 O# ram~44_q $end
$var wire 1 P# ram~36feeder_combout $end
$var wire 1 Q# ram~36_q $end
$var wire 1 R# ram~160_combout $end
$var wire 1 S# ram~161_combout $end
$var wire 1 T# ram~164_combout $end
$var wire 1 U# A_int [7] $end
$var wire 1 V# A_int [6] $end
$var wire 1 W# A_int [5] $end
$var wire 1 X# A_int [4] $end
$var wire 1 Y# A_int [3] $end
$var wire 1 Z# A_int [2] $end
$var wire 1 [# A_int [1] $end
$var wire 1 \# A_int [0] $end
$var wire 1 ]# B_int [7] $end
$var wire 1 ^# B_int [6] $end
$var wire 1 _# B_int [5] $end
$var wire 1 `# B_int [4] $end
$var wire 1 a# B_int [3] $end
$var wire 1 b# B_int [2] $end
$var wire 1 c# B_int [1] $end
$var wire 1 d# B_int [0] $end
$upscope $end
$upscope $end
$enddefinitions $end
#0
$dumpvars
b1100 !
b11 "
b11000 #
0$
0%
b0 &
0.
0-
0,
0+
0*
0)
0(
0'
x/
00
11
x2
13
14
15
06
07
08
09
0:
0;
0<
0=
0>
1?
0@
0A
0B
0C
0D
0E
0F
0G
0H
0I
0J
0K
0L
1M
0N
0O
1P
0Q
0R
0S
1T
0U
0V
0W
0X
1Y
0Z
0[
0\
0]
0^
0_
0`
0a
0b
1c
0d
0e
0f
0g
0h
0i
0j
0k
1l
0m
0n
0o
0p
0q
0r
0s
0t
0u
0v
0w
0x
0y
0z
0{
0|
0}
0~
0!!
0"!
0#!
0$!
0%!
0&!
0'!
1(!
0)!
0*!
1+!
0,!
0-!
0.!
0/!
00!
01!
02!
03!
04!
05!
06!
07!
18!
09!
0:!
0;!
0<!
0=!
0>!
0?!
1@!
0A!
0B!
0C!
0D!
0E!
0F!
0G!
1H!
0I!
1J!
0K!
0L!
0M!
0N!
0O!
0P!
0Q!
0R!
0S!
1T!
0U!
0V!
0W!
0X!
0Y!
0Z!
0[!
0\!
0]!
0^!
1_!
0`!
0a!
0b!
0c!
0d!
0e!
0f!
0g!
0h!
1i!
1j!
1k!
0l!
0m!
1n!
0o!
0p!
1q!
0r!
0s!
0t!
0u!
1v!
0w!
0x!
0y!
0z!
0{!
0|!
0}!
0~!
0!"
1""
0#"
0$"
0%"
0&"
0'"
0("
0)"
0*"
0+"
0,"
1-"
1."
0/"
00"
01"
02"
03"
14"
05"
06"
07"
08"
09"
0:"
0;"
1<"
0="
0>"
0?"
0@"
0A"
0B"
0C"
1D"
0E"
0F"
0G"
0H"
0I"
0J"
0K"
0L"
0M"
0N"
0O"
0P"
1Q"
1R"
0S"
0T"
1U"
0V"
0W"
0X"
0Y"
0Z"
1["
0\"
0]"
0^"
0_"
0`"
0a"
0b"
0c"
0d"
0e"
1f"
0g"
0h"
0i"
0j"
0k"
0l"
0m"
0n"
0o"
0p"
0q"
1r"
0s"
1t"
0u"
0v"
0w"
0x"
0y"
0z"
0{"
0|"
0}"
0~"
0!#
0"#
0##
0$#
0%#
0&#
0'#
1(#
0)#
0*#
0+#
0,#
1-#
0.#
0/#
00#
01#
02#
03#
04#
05#
06#
17#
08#
09#
1:#
0;#
1<#
0=#
0>#
0?#
0@#
0A#
0B#
0C#
0D#
0E#
0F#
1G#
0H#
0I#
0J#
0K#
0L#
0M#
1N#
0O#
0P#
0Q#
0R#
0S#
0T#
0\#
0[#
0Z#
0Y#
0X#
0W#
0V#
0U#
0d#
0c#
0b#
0a#
0`#
0_#
0^#
0]#
$end
#60000
1$
1@
1A
0/
#120000
0$
0@
0A
1/
#160000
1%
1F
0/
1Z
#180000
1$
1@
1A
1/
1`#
1a#
1Y#
1Z#
10"
1p!
1l!
0k!
1m!
1L!
0J!
1I!
12"
11"
1N!
15"
0U"
02"
1O!
1I"
1A"
1>"
19"
16"
1V"
05"
1P!
1W"
0I"
0A"
0>"
09"
06"
1c!
1\!
1Y!
1U!
1Q!
1k"
1d"
1`"
1\"
1X"
#240000
0$
0@
0A
0/
#270000
0%
0F
1/
0Z
#300000
b1 "
1$
0?
1@
1A
0/
1R#
0N#
0G#
11#
0-#
0(#
1g"
0f"
0["
1E"
0D"
0<"
0""
1y!
0v!
1`!
0_!
0T!
0@!
1<!
08!
0l
1d
0c
1]
0Y
1S#
0R#
12#
01#
1h"
0g"
1F"
0E"
1$"
0y!
1a!
0`!
1E!
0<!
1u
0d
0S#
02#
0h"
0F"
0$"
0a!
0E!
0u
1T#
13#
1o"
1M"
1+"
1h!
1F!
1$!
1=
1<
1;
1:
19
18
17
16
1'
1(
1)
1*
1+
1,
1-
1.
0T#
03#
0o"
0M"
0+"
0h!
0F!
0$!
0=
0<
0;
0:
09
08
07
06
0'
0(
0)
0*
0+
0,
0-
0.
#360000
0$
0@
0A
1/
#400000
1%
1F
0/
1^
#420000
1$
1@
1A
1/
1e"
1]!
1f"
1_!
1g"
1`!
1h"
1a!
1o"
1h!
1;
18
1)
1,
#480000
0$
0@
0A
0/
#490000
0%
0F
1/
0^
#540000
1$
1@
1A
0/
#600000
b0 "
b10 "
0$
0T
1?
0@
0A
1/
0f"
0_!
0]
1V
0g"
0`!
0h"
0a!
0o"
0h!
0;
08
0)
0,
#650000
1%
1F
0/
1W
#660000
1$
1@
1A
1/
1a"
1Z!
1g"
1`!
1h"
1a!
1o"
1h!
1;
18
1)
1,
#720000
0$
0@
0A
0/
#730000
0%
0F
1/
0W
#780000
1$
1@
1A
0/
#840000
0$
0@
0A
1/
#900000
b11 "
b1 "
1$
1T
0?
1@
1A
0/
1f"
1_!
1]
0V
0g"
0`!
1g"
1`!
0h"
0a!
1h"
1a!
0o"
0h!
0;
08
0)
0,
1o"
1h!
1;
18
1)
1,
#960000
0$
0@
0A
1/
