SISTEMAS-EMBARCADOS/trabalhos/atividade1/projeto-quartus/simulation/qsim/port_and.msim.vcd
$comment
	File created using the following command:
		vcd file port_and.msim.vcd -direction
$end
$date
	Wed Jun 09 14:43:59 2021
$end
$version
	ModelSim Version 10.1d
$end
$timescale
	1ps
$end
$scope module port_and_vlg_vec_tst $end
$var reg 1 ! a $end
$var reg 1 " b $end
$var wire 1 # c $end
$var wire 1 $ sampler $end
$scope module i1 $end
$var wire 1 % gnd $end
$var wire 1 & vcc $end
$var wire 1 ' unknown $end
$var tri1 1 ( devclrn $end
$var tri1 1 ) devpor $end
$var tri1 1 * devoe $end
$var wire 1 + c~output_o $end
$var wire 1 , a~input_o $end
$var wire 1 - b~input_o $end
$var wire 1 . c~0_combout $end
$upscope $end
$upscope $end
$enddefinitions $end
#0
$dumpvars
0!
0"
0#
x$
0%
1&
x'
1(
1)
1*
0+
0,
0-
0.
$end
#15000
1"
1-
0$
#25000
1!
1,
1$
1.
1+
1#
#30000
0"
0-
0$
0.
0+
0#
#45000
1"
1-
1$
1.
1+
1#
#50000
0!
0,
0$
0.
0+
0#
#60000
0"
0-
1$
#75000
1!
1"
1,
1-
0$
1.
1+
1#
#90000
0"
0-
1$
0.
0+
0#
#100000
0!
0,
0$
#105000
1"
1-
1$
#120000
0"
0-
0$
#125000
1!
1,
1$
#135000
1"
1-
0$
1.
1+
1#
#150000
0!
0"
0,
0-
1$
0.
0+
0#
#165000
1"
1-
0$
#175000
1!
1,
1$
1.
1+
1#
#180000
0"
0-
0$
0.
0+
0#
#195000
1"
1-
1$
1.
1+
1#
#200000
0!
0,
0$
0.
0+
0#
#210000
0"
0-
1$
#225000
1!
1"
1,
1-
0$
1.
1+
1#
#240000
0"
0-
1$
0.
0+
0#
#250000
0!
0,
0$
#255000
1"
1-
1$
#270000
0"
0-
0$
#275000
1!
1,
1$
#285000
1"
1-
0$
1.
1+
1#
#300000
0!
0"
0,
0-
1$
0.
0+
0#
#315000
1"
1-
0$
#325000
1!
1,
1$
1.
1+
1#
#330000
0"
0-
0$
0.
0+
0#
#345000
1"
1-
1$
1.
1+
1#
#350000
0!
0,
0$
0.
0+
0#
#360000
0"
0-
1$
#375000
1!
1"
1,
1-
0$
1.
1+
1#
#390000
0"
0-
1$
0.
0+
0#
#400000
0!
0,
0$
#405000
1"
1-
1$
#420000
0"
0-
0$
#425000
1!
1,
1$
#435000
1"
1-
0$
1.
1+
1#
#450000
0!
0"
0,
0-
1$
0.
0+
0#
#465000
1"
1-
0$
#475000
1!
1,
1$
1.
1+
1#
#480000
0"
0-
0$
0.
0+
0#
#495000
1"
1-
1$
1.
1+
1#
#500000
0!
0,
0$
0.
0+
0#
#510000
0"
0-
1$
#525000
1!
1"
1,
1-
0$
1.
1+
1#
#540000
0"
0-
1$
0.
0+
0#
#550000
0!
0,
0$
#555000
1"
1-
1$
#570000
0"
0-
0$
#575000
1!
1,
1$
#585000
1"
1-
0$
1.
1+
1#
#600000
0!
0"
0,
0-
1$
0.
0+
0#
#615000
1"
1-
0$
#625000
1!
1,
1$
1.
1+
1#
#630000
0"
0-
0$
0.
0+
0#
#645000
1"
1-
1$
1.
1+
1#
#650000
0!
0,
0$
0.
0+
0#
#660000
0"
0-
1$
#675000
1!
1"
1,
1-
0$
1.
1+
1#
#690000
0"
0-
1$
0.
0+
0#
#700000
0!
0,
0$
#705000
1"
1-
1$
#720000
0"
0-
0$
#725000
1!
1,
1$
#735000
1"
1-
0$
1.
1+
1#
#750000
0!
0"
0,
0-
1$
0.
0+
0#
#765000
1"
1-
0$
#775000
1!
1,
1$
1.
1+
1#
#780000
0"
0-
0$
0.
0+
0#
#795000
1"
1-
1$
1.
1+
1#
#800000
0!
0,
0$
0.
0+
0#
#810000
0"
0-
1$
#825000
1!
1"
1,
1-
0$
1.
1+
1#
#840000
0"
0-
1$
0.
0+
0#
#850000
0!
0,
0$
#855000
1"
1-
1$
#870000
0"
0-
0$
#875000
1!
1,
1$
#885000
1"
1-
0$
1.
1+
1#
#900000
0!
0"
0,
0-
1$
0.
0+
0#
#915000
1"
1-
0$
#925000
1!
1,
1$
1.
1+
1#
#930000
0"
0-
0$
0.
0+
0#
#945000
1"
1-
1$
1.
1+
1#
#950000
0!
0,
0$
0.
0+
0#
#960000
0"
0-
1$
#975000
1!
1"
1,
1-
0$
1.
1+
1#
#990000
0"
0-
1$
0.
0+
0#
