SISTEMAS-EMBARCADOS/trabalhos/trabalhofinal01/q4/simulation/qsim/flip-flop-d.msim.vcd
$comment
	File created using the following command:
		vcd file flip-flop-d.msim.vcd -direction
$end
$date
	Wed Jun 30 14:42:42 2021
$end
$version
	ModelSim Version 10.1d
$end
$timescale
	1ps
$end
$scope module dff_logic_mix_vlg_vec_tst $end
$var reg 1 ! clk_preset $end
$var reg 1 " clk_reset $end
$var reg 4 # d_preset [3:0] $end
$var reg 4 $ d_reset [3:0] $end
$var reg 1 % preset $end
$var reg 1 & reset $end
$var wire 1 ' q_preset [3] $end
$var wire 1 ( q_preset [2] $end
$var wire 1 ) q_preset [1] $end
$var wire 1 * q_preset [0] $end
$var wire 1 + q_reset [3] $end
$var wire 1 , q_reset [2] $end
$var wire 1 - q_reset [1] $end
$var wire 1 . q_reset [0] $end
$var wire 1 / sampler $end
$scope module i1 $end
$var wire 1 0 gnd $end
$var wire 1 1 vcc $end
$var wire 1 2 unknown $end
$var tri1 1 3 devclrn $end
$var tri1 1 4 devpor $end
$var tri1 1 5 devoe $end
$var wire 1 6 q_preset[0]~output_o $end
$var wire 1 7 q_preset[1]~output_o $end
$var wire 1 8 q_preset[2]~output_o $end
$var wire 1 9 q_preset[3]~output_o $end
$var wire 1 : q_reset[0]~output_o $end
$var wire 1 ; q_reset[1]~output_o $end
$var wire 1 < q_reset[2]~output_o $end
$var wire 1 = q_reset[3]~output_o $end
$var wire 1 > clk_preset~input_o $end
$var wire 1 ? clk_preset~inputclkctrl_outclk $end
$var wire 1 @ d_preset[0]~input_o $end
$var wire 1 A q_preset[0]~0_combout $end
$var wire 1 B preset~input_o $end
$var wire 1 C preset~inputclkctrl_outclk $end
$var wire 1 D q_preset[0]~reg0_q $end
$var wire 1 E d_preset[1]~input_o $end
$var wire 1 F q_preset[1]~1_combout $end
$var wire 1 G q_preset[1]~reg0_q $end
$var wire 1 H d_preset[2]~input_o $end
$var wire 1 I q_preset[2]~2_combout $end
$var wire 1 J q_preset[2]~reg0_q $end
$var wire 1 K d_preset[3]~input_o $end
$var wire 1 L q_preset[3]~3_combout $end
$var wire 1 M q_preset[3]~reg0_q $end
$var wire 1 N clk_reset~input_o $end
$var wire 1 O clk_reset~inputclkctrl_outclk $end
$var wire 1 P d_reset[0]~input_o $end
$var wire 1 Q q_reset[0]~reg0feeder_combout $end
$var wire 1 R reset~input_o $end
$var wire 1 S reset~inputclkctrl_outclk $end
$var wire 1 T q_reset[0]~reg0_q $end
$var wire 1 U d_reset[1]~input_o $end
$var wire 1 V q_reset[1]~reg0_q $end
$var wire 1 W d_reset[2]~input_o $end
$var wire 1 X q_reset[2]~reg0_q $end
$var wire 1 Y d_reset[3]~input_o $end
$var wire 1 Z q_reset[3]~reg0feeder_combout $end
$var wire 1 [ q_reset[3]~reg0_q $end
$upscope $end
$upscope $end
$enddefinitions $end
#0
$dumpvars
0!
0"
b110 #
b1111 $
1%
0&
x*
x)
x(
x'
x.
x-
x,
x+
x/
00
11
x2
13
14
15
x6
x7
x8
x9
x:
x;
x<
x=
0>
x?
0@
xA
1B
xC
0D
1E
xF
0G
1H
xI
0J
0K
xL
0M
0N
xO
1P
xQ
0R
xS
0T
1U
0V
1W
0X
1Y
xZ
0[
$end
#479
0S
0O
0?
#482
1C
#3600
16
1Q
1*
#3672
18
1(
#3732
0<
0,
#3851
19
1'
#3857
1L
#3876
0:
0.
#3887
1Z
#3904
0F
#3942
0=
0+
#3984
17
1)
#4059
0;
0-
#4098
0I
#4129
1A
#50000
1!
1"
0/
#50654
1>
#50664
1N
#51136
1?
#51146
1O
#53208
1X
#53212
1T
#53222
1V
#53223
1[
#57133
1<
1,
#57267
1:
1.
#57386
1=
1+
#57473
1;
1-
#60000
b1110 #
b1010 #
b111 $
b11 $
b1 $
b0 $
1/
#60677
1K
#60724
0Y
0U
#60734
0W
#60746
0P
#60756
0H
#64264
0L
#64570
0Q
#64811
0Z
#65079
1I
#100000
0%
0!
0"
0/
#100724
0>
0B
#100734
0N
#101203
0?
0C
#101213
0O
#120000
b1000 #
b1001 #
b1101 #
b1000 $
1/
#120654
1Y
#120664
1@
#120687
1H
#120746
0E
#124541
1Z
#124556
0A
#124785
0I
#124898
1F
#125000
1&
0/
#125664
1R
#126146
1S
#128145
0X
#128148
0T
#128158
0V
#128159
0[
#131877
0<
0,
#132024
0:
0.
#132101
0=
0+
#132217
0;
0-
#150000
1!
1"
1/
#150654
1>
#150664
1N
#151136
1?
#151146
1O
#153204
1G
#157344
07
0)
#180000
b1001 #
b0 $
0/
#180724
0Y
#180756
0H
#184811
0Z
#185079
1I
#200000
0!
0"
1/
#200724
0>
#200734
0N
#201203
0?
#201213
0O
#225000
1%
0/
#225654
1B
#226136
1C
#228140
0G
#232124
17
1)
#240000
b10 $
b11 $
b1011 #
b1010 #
b1110 #
1/
#240654
1U
#240677
1P
1E
#240687
1H
#240734
0@
#244277
1Q
#244581
0F
#244785
0I
#244863
1A
#250000
0&
1!
1"
0/
#250654
1>
#250664
1N
#250734
0R
#251136
1?
#251146
1O
#251213
0S
#300000
b110 #
b111 $
b1111 $
b1110 $
b10 #
0!
0"
1/
#300654
1Y
#300664
1W
#300724
0>
#300734
0N
#300746
0K
0P
#300756
0H
#301203
0?
#301213
0O
#304541
1Z
#304570
0Q
#304603
1L
#305079
1I
#350000
0%
1!
1"
0/
#350654
1>
#350664
1N
#350724
0B
#351136
1?
#351146
1O
#351203
0C
#353208
1X
#353222
1V
#353223
1[
#357133
1<
1,
#357386
1=
1+
#357473
1;
1-
#360000
b0 #
b1010 $
b10 $
b11 $
b100 #
1/
#360677
1P
#360687
1H
#360724
0Y
#360734
0W
#360746
0E
#364277
1Q
#364785
0I
#364811
0Z
#364898
1F
#375000
1&
0/
#375664
1R
#376146
1S
#378145
0X
#378158
0V
#378159
0[
#381877
0<
0,
#382101
0=
0+
#382217
0;
0-
#400000
0!
0"
1/
#400724
0>
#400734
0N
#401203
0?
#401213
0O
#420000
b1 $
b0 $
0/
#420724
0U
#420746
0P
#424570
0Q
#450000
1!
1"
1/
#450654
1>
#450664
1N
#451136
1?
#451146
1O
#453204
1M
1G
#453207
1D
#457004
06
0*
#457223
09
0'
#457344
07
0)
#475000
1%
0/
#475654
1B
#476136
1C
#478140
0G
#478141
0M
#478142
0D
#480000
b101 #
b1101 #
b10 $
b11 $
1/
#480654
1U
#480664
1@
#480677
1K
1P
#481742
16
1*
#481992
19
1'
#482124
17
1)
#484264
0L
#484277
1Q
#484556
0A
#500000
0&
0!
0"
0/
#500724
0>
#500734
0N
0R
#501203
0?
#501213
0O
0S
#540000
b1111 #
b111 $
b1111 $
b1110 #
1/
#540654
1Y
#540664
1W
#540677
1E
#540734
0@
#544541
1Z
#544581
0F
#544863
1A
#550000
1!
1"
0/
#550654
1>
#550664
1N
#551136
1?
#551146
1O
#553208
1X
#553212
1T
#553222
1V
#553223
1[
#557133
1<
1,
#557267
1:
1.
#557386
1=
1+
#557473
1;
1-
#600000
0%
b110 #
b1110 $
b100 #
b1010 $
b101 #
0!
0"
1/
#600664
1@
#600724
0>
0B
#600734
0N
0W
#600746
0K
0E
0P
#601203
0?
0C
#601213
0O
#604556
0A
#604570
0Q
#604603
1L
#604898
1F
#625000
1&
0/
#625664
1R
#626146
1S
#628145
0X
#628148
0T
#628158
0V
#628159
0[
#631877
0<
0,
#632024
0:
0.
#632101
0=
0+
#632217
0;
0-
#650000
1!
1"
1/
#650654
1>
#650664
1N
#651136
1?
#651146
1O
#653204
1M
1G
#657223
09
0'
#657344
07
0)
#660000
b1 #
b1000 $
b0 $
b1001 #
b1 $
b1011 #
b101 $
b1010 #
0/
#660664
1W
#660677
1K
1E
1P
#660724
0Y
0U
#660734
0@
#660756
0H
#664264
0L
#664277
1Q
#664581
0F
#664811
0Z
#664863
1A
#665079
1I
#700000
0!
0"
1/
#700724
0>
#700734
0N
#701203
0?
#701213
0O
#720000
b10 #
b0 #
0/
#720746
0K
0E
#724603
1L
#724898
1F
#725000
1%
1/
#725654
1B
#726136
1C
#728140
0G
#728141
0M
#731992
19
1'
#732124
17
1)
#750000
0&
1!
1"
0/
#750654
1>
#750664
1N
#750734
0R
#751136
1?
#751146
1O
#751213
0S
#780000
b100 #
b1101 $
b1100 $
1/
#780654
1Y
#780687
1H
#780746
0P
#784541
1Z
#784570
0Q
#784785
0I
#800000
0!
0"
0/
#800724
0>
#800734
0N
#801203
0?
#801213
0O
#840000
b1110 $
b1100 #
b1110 #
b110 $
1/
#840654
1U
#840677
1K
1E
#840724
0Y
#844264
0L
#844581
0F
#844811
0Z
#850000
0%
1!
1"
0/
#850654
1>
#850664
1N
#850724
0B
#851136
1?
#851146
1O
#851203
0C
#853208
1X
#853222
1V
#857133
1<
1,
#857473
1;
1-
#875000
1&
1/
#875664
1R
#876146
1S
#878145
0X
#878158
0V
#881877
0<
0,
#882217
0;
0-
#900000
b1111 #
b1011 #
b100 $
b11 #
0!
0"
0/
#900664
1@
#900724
0>
0U
#900734
0N
#900746
0K
#900756
0H
#901203
0?
#901213
0O
#904556
0A
#904603
1L
#905079
1I
#950000
1!
1"
1/
#950654
1>
#950664
1N
#951136
1?
#951146
1O
#953204
1M
#953206
1J
#957005
08
0(
#957223
09
0'
#960000
b0 $
b1 #
0/
#960734
0W
#960746
0E
#964898
1F
#975000
1%
1/
#975654
1B
#976136
1C
#978141
0M
#978146
0J
#981818
18
1(
#981992
19
1'
